.title 1300W RMS FOR 4-OHMS CLASS-TD AUDIO POWER AMPLIFIER - DEVELOPMENT STEP 4
.include "spice_models/model.lib"
R_GND1 INPUT_GND 0 1
V104 +15V 0 DC 15V
V102 +120V 0 DC 120V
V101 MAIN_IN 0 dc 0 ac 1.44 sin(0 1.44 1k 0 0)
V105 0 -15V DC 15V
V103 0 -120V DC 120V
R_LOAD1 VPOUT 0 4
Q507 +120V VSGZP Net-_Q506-Pad3_ 2N5551
Q506 VSFP VSLDRVP Net-_Q506-Pad3_ 2N5401
D508 VSFP VSGZP 1N4742
Q509 +120V Net-_Q506-Pad3_ VSGP MJE340
Q508 VSFP Net-_Q506-Pad3_ VSGP MJE350
D509 0 VSFP MURF1560
C504 VSAVP 0 1uF
L501 VSFP VSAVP 10uH
D510 0 VSAVP MURF1560
Q4146 VSAVP DRVP2 Net-_Q4146-Pad3_ 2SC5200
Q4145 VSAVP DRVP2 Net-_Q4145-Pad3_ 2SC5200
R4206 Net-_Q4146-Pad3_ VMOUT 0.33
R4205 Net-_Q4145-Pad3_ VMOUT 0.33
Q4156 VSAVN DRVN2 Net-_Q4156-Pad3_ 2SA1943
Q4155 VSAVN DRVN2 Net-_Q4155-Pad3_ 2SA1943
R4216 VMOUT Net-_Q4156-Pad3_ 0.33
R4215 VMOUT Net-_Q4155-Pad3_ 0.33
R511 VSFP VSZPP 680
C503 VSZPP VSAVP 2200pF
D511 VSFP +120V MURF1560
D512 VSAVP +120V MURF1560
XQ5012 +120V VSGP VSFP IRFP250N
XQ5011 +120V VSGP VSFP IRFP250N
R422 VMOUT Net-_C406-Pad1_ 10
C406 Net-_C406-Pad1_ 0 0.1uF
L401 VPOUT VMOUT 1uH
C604 0 VSAVN 1uF
D610 VSAVN 0 MURF1560
C501 Net-_C501-Pad1_ Net-_C501-Pad2_ 10uF
D501 +120V Net-_C501-Pad1_ 1N4007
D502 DRVP2 Net-_D502-Pad2_ BAV21
R503 Net-_C501-Pad2_ DRVP2 20k
R504 Net-_D502-Pad2_ 0 20k
Q501 0 Net-_D502-Pad2_ Net-_D503-Pad1_ 2N5401
R415 VASP Net-_R414-Pad1_ 3.9k
R417 DRVP1 DRVN1 120
R501 +120V Net-_C501-Pad1_ 20k
C502 +120V Net-_C502-Pad2_ 330pF
D503 Net-_D503-Pad1_ Net-_C502-Pad2_ 1N4734
R502 Net-_C501-Pad1_ Net-_C502-Pad2_ 20k
C408 +120V 0 10uF
Q404 DIFF_P DIFF_N Net-_Q404-Pad3_ MPSA92
R4072 +120V Net-_Q404-Pad3_ 1.5k
R4062 +120V Net-_Q403-Pad3_ 1.5k
R4061 +120V Net-_Q403-Pad3_ 68
R4071 +120V Net-_Q404-Pad3_ 68
Q403 DIFF_N DIFF_N Net-_Q403-Pad3_ MPSA92
D402 Net-_D402-Pad1_ +120V 1N4732
R410 Net-_D402-Pad1_ 0 39k
Q410 +120V VASP DRVP1 MJE15032
R411 +120V VAS_ED 180
Q406 Net-_Q406-Pad1_ DIFF_P VAS_ED BC557
C404 VASP DIFF_P 68pF
Q407 VASP Net-_D402-Pad1_ Net-_Q406-Pad1_ MJE350
Q402 DIFF_N NFB DIFF_RE MPSA42
R403 VMOUT NFB 20k
R404 NFB Net-_C403-Pad1_ 270
Q401 DIFF_P REF DIFF_RE MPSA42
R401 Net-_C401-Pad2_ REF 820
R414 Net-_R414-Pad1_ Net-_Q408-Pad2_ 470
C403 Net-_C403-Pad1_ INPUT_GND 220uF
RT401 VASP Net-_R414-Pad1_ 5k
Q606 -120V VSLDRVN Net-_Q606-Pad3_ 2N5401
Q608 -120V Net-_Q606-Pad3_ VSGN MJE350
XQ6011 VSFN VSGN -120V IRFP250N
Q607 VSFN VSGZN Net-_Q606-Pad3_ 2N5551
Q609 VSFN Net-_Q606-Pad3_ VSGN MJE340
D608 VSGZN VSFN BAV21
R608 0 VSTAN 15k
R609 0 VSGZN 15k
R605 VSAVN VSTDRVN 100
Q413 VSAVN DRVN1 DRVN2 2SA1943
Q412 VSAVP DRVP1 DRVP2 2SC5200
D606 VSGZN VSLDRVN BAV21
D607 -120V VSGZN 1N4742
Q604 VSTAN Net-_Q604-Pad2_ -120V 2N5551
Q605 VSLDRVN VSTAN -120V 2N5551
D612 -120V VSAVN MURF1560
D611 -120V VSFN MURF1560
D609 VSFN 0 MURF1560
R610 VSZPN VSFN 680
XQ6012 VSFN VSGN -120V IRFP250N
C603 VSAVN VSZPN 2200pF
L601 VSFN VSAVN 10uH
R606 VSTCN -120V 1.5
R607 VSTCN Net-_Q604-Pad2_ 150
Q603 VSTCN VSTDRVN VSAVN 2SA1943
D605 VSTCN Net-_D604-Pad1_ MURF1560
D604 Net-_D604-Pad1_ -120V MURF1560
R412 Net-_Q408-Pad2_ VASN 1.8k
Q408 VASN Net-_Q408-Pad2_ VASP MJE350
R604 0 Net-_D602-Pad1_ 20k
R413 VASP Net-_Q408-Pad2_ 560
Q502 +120V Net-_C502-Pad2_ VSTDRVP MJE15032
C405 VASP VASN 0.1uF
Q411 -120V VASN DRVN1 MJE15033
C410 0 -120V 10uF
R4091 Net-_Q405-Pad3_ Net-_R4091-Pad2_ 470
R4092 Net-_R4091-Pad2_ -120V 33
R408 VMRRZ 0 39k
C409 0 -120V 0.1uF
D602 Net-_D602-Pad1_ DRVN2 BAV21
R603 DRVN2 Net-_C601-Pad1_ 20k
C601 Net-_C601-Pad1_ Net-_C601-Pad2_ 10uF
D601 Net-_C601-Pad2_ -120V 1N4007
R4162 Net-_R4161-Pad2_ -120V 33
Q409 VASN VMRRZ Net-_Q409-Pad3_ MJE340
R4161 Net-_Q409-Pad3_ Net-_R4161-Pad2_ 470
D401 -120V VMRRZ 1N4730
R402 INPUT_GND REF 20k
C407 +120V 0 0.1uF
R405 INPUT_GND 0 10
C401 MAIN_IN Net-_C401-Pad2_ 10uF
Q405 DIFF_RE VMRRZ Net-_Q405-Pad3_ MJE340
C402 INPUT_GND REF 220pF
Q601 0 Net-_D602-Pad1_ Net-_D603-Pad2_ 2N5551
R601 Net-_C601-Pad2_ -120V 20k
R602 Net-_C602-Pad1_ Net-_C601-Pad2_ 20k
C602 Net-_C602-Pad1_ -120V 330pF
Q602 -120V Net-_C602-Pad1_ VSTDRVN MJE15033
D603 Net-_C602-Pad1_ Net-_D603-Pad2_ 1N4734
R507 Net-_Q504-Pad2_ VSTCP 150
R506 +120V VSTCP 1.5
D506 Net-_D506-Pad1_ +120V 1N4742
D504 +120V Net-_D504-Pad2_ MURF1560
D505 Net-_D504-Pad2_ VSTCP MURF1560
Q504 VSTAP Net-_Q504-Pad2_ +120V 2N5401
Q505 VSLDRVP Net-_D506-Pad1_ VSTAP 2N5401
Q503 VSTCP VSTDRVP VSAVP 2SC5200
R505 VSTDRVP VSAVP 100
R508 Net-_D506-Pad1_ 0 15k
R509 VSLDRVP 0 15k
Q4141 VSAVP DRVP2 Net-_Q4141-Pad3_ 2SC5200
Q4142 VSAVP DRVP2 Net-_Q4142-Pad3_ 2SC5200
Q4144 VSAVP DRVP2 Net-_Q4144-Pad3_ 2SC5200
Q4143 VSAVP DRVP2 Net-_Q4143-Pad3_ 2SC5200
R510 VSLDRVP VSGZP 1.5k
D507 VSFP VSLDRVP BAV21
R4214 VMOUT Net-_Q4154-Pad3_ 0.33
R4204 Net-_Q4144-Pad3_ VMOUT 0.33
R4203 Net-_Q4143-Pad3_ VMOUT 0.33
R4213 VMOUT Net-_Q4153-Pad3_ 0.33
R418 DRVP2 VMOUT 7.5
R419 VMOUT DRVN2 7.5
Q4154 VSAVN DRVN2 Net-_Q4154-Pad3_ 2SA1943
Q4153 VSAVN DRVN2 Net-_Q4153-Pad3_ 2SA1943
Q4152 VSAVN DRVN2 Net-_Q4152-Pad3_ 2SA1943
Q4151 VSAVN DRVN2 Net-_Q4151-Pad3_ 2SA1943
R4211 VMOUT Net-_Q4151-Pad3_ 0.33
R4201 Net-_Q4141-Pad3_ VMOUT 0.33
R4202 Net-_Q4142-Pad3_ VMOUT 0.33
R4212 VMOUT Net-_Q4152-Pad3_ 0.33
.tran 0.1u 1m
.end
