(footprint "D_DO-35_SOD27_P10.16mm_Horizontal" (version 20211014) (generator pcbnew)
  (layer "F.Cu")
  (tedit 5AE50CD5)
  (descr "Diode, DO-35_SOD27 series, Axial, Horizontal, pin pitch=10.16mm, , length*diameter=4*2mm^2, , http://www.diodes.com/_files/packages/DO-35.pdf")
  (tags "Diode DO-35_SOD27 series Axial Horizontal pin pitch 10.16mm  length 4mm diameter 2mm")
  (attr through_hole)
  (fp_text reference "REF**" (at 11.43 0) (layer "F.SilkS")
    (effects (font (size 1.524 1.016) (thickness 0.254)) (justify left))
    (tstamp faf90b1c-08ec-47dd-9481-1465d6be5c0f)
  )
  (fp_text value "D_DO-35_SOD27_P10.16mm_Horizontal" (at 5.08 2.12) (layer "F.Fab")
    (effects (font (size 1 1) (thickness 0.15)))
    (tstamp 6a30a355-9247-4684-b158-6aa8bc01903f)
  )
  (fp_text user "K" (at 10.16 1.8 180) (layer "F.Fab")
    (effects (font (size 1 1) (thickness 0.15)))
    (tstamp 47852a4e-cdf8-4c6f-9840-e89c0488449b)
  )
  (fp_text user "${REFERENCE}" (at 4.78 0 180) (layer "F.Fab")
    (effects (font (size 0.8 0.8) (thickness 0.12)))
    (tstamp 695438ed-75b9-4b57-bd3a-7a6dc27a83e1)
  )
  (fp_line (start 9.12 0) (end 7.2 0) (layer "F.SilkS") (width 0.254) (tstamp 00fdc1ea-722a-475c-976a-4f1d24237d95))
  (fp_line (start 6.48 1.12) (end 6.48 -1.12) (layer "F.SilkS") (width 0.254) (tstamp 0825b88e-7473-49f3-b9f4-76e14e920d93))
  (fp_line (start 2.96 -1.12) (end 2.96 1.12) (layer "F.SilkS") (width 0.254) (tstamp 0b761f59-1f01-491f-a27e-1da474349dba))
  (fp_line (start 2.96 1.12) (end 7.2 1.12) (layer "F.SilkS") (width 0.254) (tstamp 19f4a083-be02-4ed6-befb-bbb2cc9af89e))
  (fp_line (start -1.016 1.016) (end 1.016 1.016) (layer "F.SilkS") (width 0.254) (tstamp 1c13e11a-974d-428b-b397-f2f7b291782c))
  (fp_line (start -1.016 -1.016) (end -1.016 1.016) (layer "F.SilkS") (width 0.254) (tstamp 2b85ca4f-4562-47ff-ba27-e38746b6ba23))
  (fp_line (start 5.715 0) (end 6.36 0) (layer "F.SilkS") (width 0.254) (tstamp 312d7019-d71c-4c23-a268-b9e85206be21))
  (fp_line (start 5.715 0) (end 4.445 0.635) (layer "F.SilkS") (width 0.254) (tstamp 35e24d54-a3cd-4c04-8c2b-e1ede8b0b0ba))
  (fp_line (start 4.445 -0.635) (end 5.715 0) (layer "F.SilkS") (width 0.254) (tstamp 40a50240-7204-453a-b92e-9462e03664ff))
  (fp_line (start 6.36 1.12) (end 6.36 -1.12) (layer "F.SilkS") (width 0.254) (tstamp 4a308d01-a27e-421e-9609-7dac0e22f0ee))
  (fp_line (start 4.445 0.635) (end 4.445 -0.635) (layer "F.SilkS") (width 0.254) (tstamp 63c32c0e-f981-436e-8403-9fb37e22ebb1))
  (fp_line (start 7.2 -1.12) (end 2.96 -1.12) (layer "F.SilkS") (width 0.254) (tstamp 65c65617-132d-48f3-8247-e7f73bff0078))
  (fp_line (start 5.715 0.635) (end 5.715 -0.635) (layer "F.SilkS") (width 0.254) (tstamp 74de7184-905d-401e-a2f0-b8ff8d6d5c5d))
  (fp_line (start 4.445 0) (end 3.175 0) (layer "F.SilkS") (width 0.254) (tstamp 792b10c3-bf80-4f2b-a5bd-21e16e801121))
  (fp_line (start 1.016 1.016) (end 1.016 0.381) (layer "F.SilkS") (width 0.254) (tstamp 79f6b9a9-6052-4b1f-a08f-ca1cad51906f))
  (fp_line (start 1.016 -1.016) (end -1.016 -1.016) (layer "F.SilkS") (width 0.254) (tstamp a7b8d210-d81e-4eff-9a4d-63134534c97d))
  (fp_line (start 1.04 0) (end 2.96 0) (layer "F.SilkS") (width 0.254) (tstamp af3e437c-a43f-4676-89a6-de8e038295bf))
  (fp_line (start 1.016 -0.381) (end 1.016 -1.016) (layer "F.SilkS") (width 0.254) (tstamp c12de809-3d90-461e-b4a4-c9fc391a44db))
  (fp_line (start 6.6 1.12) (end 6.6 -1.12) (layer "F.SilkS") (width 0.254) (tstamp c24ae9ba-7a51-48a6-8f1a-7f84ac5fc422))
  (fp_line (start 7.2 1.12) (end 7.2 -1.12) (layer "F.SilkS") (width 0.254) (tstamp c682d2ad-c6d1-4c91-ba94-f919babf16ba))
  (fp_circle (center 10.16 0) (end 9.12 0) (layer "F.SilkS") (width 0.254) (fill none) (tstamp 6075e3ee-d1ed-4162-9850-98a255f132ab))
  (fp_line (start -1.05 1.25) (end 11.21 1.25) (layer "F.CrtYd") (width 0.05) (tstamp 2e2d2af8-1b11-496f-a13e-2e0b6ae2566e))
  (fp_line (start 11.21 -1.25) (end -1.05 -1.25) (layer "F.CrtYd") (width 0.05) (tstamp 5b048c78-6b2a-469d-a80a-c9d2be1eff13))
  (fp_line (start 11.21 1.25) (end 11.21 -1.25) (layer "F.CrtYd") (width 0.05) (tstamp cf879537-2c49-4807-b900-31008ef4fb5e))
  (fp_line (start -1.05 -1.25) (end -1.05 1.25) (layer "F.CrtYd") (width 0.05) (tstamp dafcbfc4-7bca-4cb2-b786-aa55d9bd391d))
  (fp_line (start 7.08 1) (end 7.08 -1) (layer "F.Fab") (width 0.1) (tstamp 0464e090-db12-401d-83c8-748bca1257ae))
  (fp_line (start 6.48 1) (end 6.48 -1) (layer "F.Fab") (width 0.1) (tstamp 08153383-7fee-4862-973a-db3ee6dfd712))
  (fp_line (start 3.08 1) (end 7.08 1) (layer "F.Fab") (width 0.1) (tstamp 62c820dc-5268-454d-bbbf-01f2940a9297))
  (fp_line (start 6.38 1) (end 6.38 -1) (layer "F.Fab") (width 0.1) (tstamp 6f4c1a14-a5b7-4297-a18b-7be1e5840988))
  (fp_line (start 6.58 1) (end 6.58 -1) (layer "F.Fab") (width 0.1) (tstamp 8d4c71f6-3bbf-43c8-8153-48459ca87d07))
  (fp_line (start 7.08 -1) (end 3.08 -1) (layer "F.Fab") (width 0.1) (tstamp 91a504e5-1d50-4a2a-8ffb-bca7e24e5186))
  (fp_line (start 3.08 -1) (end 3.08 1) (layer "F.Fab") (width 0.1) (tstamp aaae8258-b44c-473d-bce0-05f5f38640e6))
  (fp_line (start 0 0) (end 3.08 0) (layer "F.Fab") (width 0.1) (tstamp da78a4e4-9cb7-4143-add1-dd3dfe55c06f))
  (fp_line (start 10.16 0) (end 7.08 0) (layer "F.Fab") (width 0.1) (tstamp ef4712ff-f301-4150-8cbb-34f2b9c45279))
  (pad "1" thru_hole rect (at 0 0 180) (size 1.6 1.6) (drill 0.8) (layers *.Cu *.Mask) (tstamp e14b80b3-9789-4140-a6ac-a3978dddfada))
  (pad "2" thru_hole oval (at 10.16 0 180) (size 1.6 1.6) (drill 0.8) (layers *.Cu *.Mask) (tstamp e0f9792d-c50c-499f-8493-1b8364a97ea8))
  (model "${KICAD6_3DMODEL_DIR}/Diode_THT.3dshapes/D_DO-35_SOD27_P10.16mm_Horizontal.wrl"
    (offset (xyz 10.16 0 0))
    (scale (xyz 1 1 1))
    (rotate (xyz 0 0 180))
  )
)
