(footprint "D_DO-35_SOD27_P5.08mm_Vertical_KathodeUp_1N47xx" (version 20211014) (generator pcbnew)
  (layer "F.Cu")
  (tedit 5AE50CD5)
  (descr "Diode, DO-35_SOD27 series, Axial, Vertical, pin pitch=5.08mm, , length*diameter=4*2mm^2, , http://www.diodes.com/_files/packages/DO-35.pdf")
  (tags "Diode DO-35_SOD27 series Axial Vertical pin pitch 5.08mm  length 4mm diameter 2mm")
  (attr through_hole)
  (fp_text reference "REF**" (at 2.54 -2.326371) (layer "F.SilkS")
    (effects (font (size 1 1) (thickness 0.15)))
    (tstamp ce0351fd-3fc0-44f9-8927-ff64ff3c7248)
  )
  (fp_text value "D_DO-35_SOD27_P5.08mm_Vertical_KathodeUp_1N47xx" (at 2.54 2.326371) (layer "F.Fab")
    (effects (font (size 1 1) (thickness 0.15)))
    (tstamp f82e7689-a591-493e-9547-0c92a53d7a75)
  )
  (fp_text user "${REFERENCE}" (at 2.54 -2.326371) (layer "F.Fab")
    (effects (font (size 1 1) (thickness 0.15)))
    (tstamp cf3f3047-205b-4b24-a9c6-948dae9baef8)
  )
  (fp_text user "K" (at 6.25 0 180) (layer "F.Fab")
    (effects (font (size 1 1) (thickness 0.15)))
    (tstamp ddaef23c-a760-416d-ac14-a38f00ff98d4)
  )
  (fp_line (start 1.576371 0) (end 4.23 0) (layer "F.SilkS") (width 0.12) (tstamp 06d89548-0db2-4805-b5a7-ee20a7503f27))
  (fp_circle (center 0 0) (end -1.326371 0) (layer "F.SilkS") (width 0.12) (fill none) (tstamp b081ce74-7200-4354-982f-44028c9d260c))
  (fp_line (start -1.05 1.25) (end 6.33 1.25) (layer "F.CrtYd") (width 0.05) (tstamp 07f8e1c5-41f8-4362-9705-57534e50a024))
  (fp_line (start 6.33 1.25) (end 6.33 -1.25) (layer "F.CrtYd") (width 0.05) (tstamp 0c4f6df3-8830-422c-b77b-93e33334b653))
  (fp_line (start 6.33 -1.25) (end -1.05 -1.25) (layer "F.CrtYd") (width 0.05) (tstamp c5e7a407-5789-48f5-971b-8b628b521378))
  (fp_line (start -1.05 -1.25) (end -1.05 1.25) (layer "F.CrtYd") (width 0.05) (tstamp c93d1f77-9d79-4c0f-8008-c05d3eebee3b))
  (fp_line (start 5.08 0) (end 0 0) (layer "F.Fab") (width 0.1) (tstamp d3921354-80fd-433a-a99a-a70120bb67da))
  (fp_circle (center 0 0) (end -1 0) (layer "F.Fab") (width 0.1) (fill none) (tstamp 72c3b55f-d1c7-4f05-88c0-e387f936ec5e))
  (pad "1" thru_hole rect (at 0 0 180) (size 2 2) (drill 1) (layers *.Cu *.Mask) (tstamp 83458613-d6c6-4d06-9404-50dc918891d5))
  (pad "2" thru_hole oval (at 5.08 0 180) (size 2 2) (drill 1) (layers *.Cu *.Mask) (tstamp 0c83f41a-c28d-492d-b2c4-c130e0c7bf8f))
  (model "${KICAD6_3DMODEL_DIR}/Diode_THT.3dshapes/D_DO-35_SOD27_P5.08mm_Vertical_KathodeUp.wrl"
    (offset (xyz 5.08 0 0))
    (scale (xyz 1 1 1))
    (rotate (xyz 0 0 180))
  )
)
