(footprint "J_10.16mm" (version 20211014) (generator pcbnew)
  (layer "F.Cu")
  (tedit 5AE5139B)
  (descr "Resistor, Axial_DIN0207 series, Axial, Horizontal, pin pitch=10.16mm, 0.25W = 1/4W, length*diameter=6.3*2.5mm^2, http://cdn-reichelt.de/documents/datenblatt/B400/1_4W%23YAG.pdf")
  (tags "Resistor Axial_DIN0207 series Axial Horizontal pin pitch 10.16mm 0.25W = 1/4W length 6.3mm diameter 2.5mm")
  (attr through_hole)
  (fp_text reference "REF**" (at 5.08 -2.37) (layer "F.SilkS")
    (effects (font (size 1 1) (thickness 0.15)))
    (tstamp feaf2315-9459-4e5b-bd06-106bc303634a)
  )
  (fp_text value "J_10.16mm" (at 5.08 2.37) (layer "F.Fab")
    (effects (font (size 1 1) (thickness 0.15)))
    (tstamp b7ee0cd7-bfee-496b-92c1-d88704fe67fa)
  )
  (fp_text user "${REFERENCE}" (at 5.08 0.635) (layer "F.Fab")
    (effects (font (size 1 1) (thickness 0.15)))
    (tstamp 490a7353-000a-4ef9-ab08-ee8fdad234e7)
  )
  (fp_line (start 9.12 0) (end 5.715 0) (layer "F.SilkS") (width 0.12) (tstamp 13d2f1d2-bd5c-4419-a16e-200917a08a2f))
  (fp_line (start 1.04 0) (end 4.445 0) (layer "F.SilkS") (width 0.12) (tstamp 22a140a5-abc0-4c93-a115-3ded4440fab9))
  (fp_line (start 5.08 -0.635) (end 5.715 0) (layer "F.SilkS") (width 0.12) (tstamp 70317a3f-7862-4699-81d8-e2f90803f272))
  (fp_line (start 5.08 -0.635) (end 4.445 0) (layer "F.SilkS") (width 0.12) (tstamp 91c39d42-6e90-4375-99df-b3f7e83ed326))
  (fp_line (start 11.21 1.5) (end 11.21 -1.5) (layer "F.CrtYd") (width 0.05) (tstamp 67678070-4bbb-4b79-9e9a-cbd87db09e2a))
  (fp_line (start 11.21 -1.5) (end -1.05 -1.5) (layer "F.CrtYd") (width 0.05) (tstamp 74f6930d-5423-44f6-90c0-85de9a2c0381))
  (fp_line (start -1.05 1.5) (end 11.21 1.5) (layer "F.CrtYd") (width 0.05) (tstamp 91e4595b-97e0-4642-9ec3-33eecbbbec9e))
  (fp_line (start -1.05 -1.5) (end -1.05 1.5) (layer "F.CrtYd") (width 0.05) (tstamp 9efa66f6-cbbc-47c9-aff8-bb812a01fbaf))
  (fp_line (start 0 0) (end 10.16 0) (layer "F.Fab") (width 0.1) (tstamp 70f478af-b1a4-4cd2-ab56-4a7807fbc2ac))
  (pad "1" thru_hole circle (at 0 0) (size 1.6 1.6) (drill 0.8) (layers *.Cu *.Mask) (tstamp 2f91f3f3-9c91-4e72-beff-15cd0f00e8e7))
  (pad "2" thru_hole oval (at 10.16 0) (size 1.6 1.6) (drill 0.8) (layers *.Cu *.Mask) (tstamp 8344306a-f2e9-488c-89f8-795d49418b7b))
  (model "${KIPRJMOD}/PCB_LIB/3d/J_10.16.mm.step"
    (offset (xyz 0 0 -1.4))
    (scale (xyz 1 1 1))
    (rotate (xyz 0 0 0))
  )
  (model "${KIPRJMOD}/PCB_LIB/3d/J_10.16mm.step"
    (offset (xyz 0 0 -1.4))
    (scale (xyz 1 1 1))
    (rotate (xyz 0 0 0))
  )
)
