(footprint "MURF1560" (version 20211014) (generator pcbnew)
  (layer "F.Cu")
  (tedit 5CD85190)
  (attr through_hole)
  (fp_text reference "REF**" (at 0 -3.81) (layer "F.SilkS")
    (effects (font (size 1.524 1.016) (thickness 0.254)))
    (tstamp 8d039ee3-8611-411f-aa4f-e1587e66785a)
  )
  (fp_text value "MURF1560" (at 0 2.54) (layer "F.Fab")
    (effects (font (size 1.27 1.27) (thickness 0.254)))
    (tstamp 427e1135-fe16-4369-8fba-b3a19c99b034)
  )
  (fp_line (start 5.08 1.27) (end 5.08 -2.54) (layer "F.SilkS") (width 0.254) (tstamp 0e8d0dae-5ee7-4335-bc38-8b4b2c253762))
  (fp_line (start 3.81 -1.27) (end 5.08 -1.27) (layer "F.SilkS") (width 0.254) (tstamp 10815817-3b1c-449e-9b41-7c6bf2b274a5))
  (fp_line (start 5.08 -2.54) (end -5.08 -2.54) (layer "F.SilkS") (width 0.254) (tstamp 1f28e346-bfcf-4936-ac0d-c3ce8b75291e))
  (fp_line (start 1.27 -1.27) (end 2.54 -1.27) (layer "F.SilkS") (width 0.254) (tstamp 979680b1-0248-4217-9779-466d382e1611))
  (fp_line (start -5.08 -2.54) (end -5.08 1.27) (layer "F.SilkS") (width 0.254) (tstamp 9c9681c1-fbfd-4c7a-b053-bc02d687f995))
  (fp_line (start -0.508 -1.27) (end 0.508 -1.27) (layer "F.SilkS") (width 0.254) (tstamp 9d6c1232-f94f-4051-a096-f9a61e080e04))
  (fp_line (start -2.54 -1.27) (end -1.27 -1.27) (layer "F.SilkS") (width 0.254) (tstamp c5197651-9e98-41cd-af98-520201626ade))
  (fp_line (start -5.08 1.27) (end 5.08 1.27) (layer "F.SilkS") (width 0.254) (tstamp ccf9db31-d4ac-4a0e-923d-e1430b132700))
  (fp_line (start -5.08 -1.27) (end -3.81 -1.27) (layer "F.SilkS") (width 0.254) (tstamp fe9e5c83-8399-4ce5-97f0-3c27add73ec0))
  (fp_line (start 5.334 1.524) (end 5.334 -2.794) (layer "F.CrtYd") (width 0.0508) (tstamp 2a25d04d-33b6-46ee-a72f-7312cd974f9c))
  (fp_line (start -5.334 -2.794) (end -5.334 1.524) (layer "F.CrtYd") (width 0.0508) (tstamp 6cb10f32-ddec-4a20-bf67-5c1be4ee3bfb))
  (fp_line (start 5.334 -2.794) (end -5.334 -2.794) (layer "F.CrtYd") (width 0.0508) (tstamp d5050662-4d36-46ee-bf8b-01a5df9b1753))
  (fp_line (start -5.334 1.524) (end 5.334 1.524) (layer "F.CrtYd") (width 0.0508) (tstamp de2f5192-7d0a-4328-9935-06801b2d318e))
  (pad "1" thru_hole circle (at -2.54 0) (size 2.032 2.032) (drill 1.016) (layers *.Cu *.Mask) (tstamp a11dcce1-7c18-407f-bea0-6624675798fa))
  (pad "2" thru_hole circle (at 2.54 0) (size 2.032 2.032) (drill 1.016) (layers *.Cu *.Mask) (tstamp 2726c12d-8273-4a76-b833-11cb959a3ae3))
)
