(footprint "TO-126-3_Vertical" (version 20211014) (generator pcbnew)
  (layer "F.Cu")
  (tedit 5AC8BA0D)
  (descr "TO-126-3, Vertical, RM 2.54mm, see https://www.diodes.com/assets/Package-Files/TO126.pdf")
  (tags "TO-126-3 Vertical RM 2.54mm")
  (attr through_hole)
  (fp_text reference "REF**" (at 7 0) (layer "F.SilkS")
    (effects (font (size 1.524 1.016) (thickness 0.254)) (justify left))
    (tstamp 4633e5ce-8376-46c5-889a-25584f388cd2)
  )
  (fp_text value "TO-126-3_Vertical" (at 2.54 2.5) (layer "F.Fab")
    (effects (font (size 1 1) (thickness 0.15)))
    (tstamp eb2f6b05-8340-4300-9be5-82019ec61d12)
  )
  (fp_text user "${REFERENCE}" (at 2.54 -3.12) (layer "F.Fab")
    (effects (font (size 1 1) (thickness 0.15)))
    (tstamp 9c4d83c2-7f63-42f8-9374-3d2c0ed7d71c)
  )
  (fp_line (start 6.66 -2.12) (end 6.66 1.37) (layer "F.SilkS") (width 0.254) (tstamp 0678909c-42f4-4cdd-a0e5-14347a924a71))
  (fp_line (start 0.94 -2.12) (end 0.94 -1.05) (layer "F.SilkS") (width 0.254) (tstamp 48abaa43-3936-4c78-9652-7d1046c52a18))
  (fp_line (start 4.141 0.54) (end 4.141 1.37) (layer "F.SilkS") (width 0.254) (tstamp 719ab4d0-6eb5-4a77-ba7a-f08c910931bf))
  (fp_line (start 4.141 -2.12) (end 4.141 -0.54) (layer "F.SilkS") (width 0.254) (tstamp 9fa84a26-6059-4311-893e-f17fe18e4414))
  (fp_line (start -1.58 1.37) (end 6.66 1.37) (layer "F.SilkS") (width 0.254) (tstamp a27af003-49d4-4962-a42d-d623dff22944))
  (fp_line (start -1.58 -2.12) (end -1.58 1.37) (layer "F.SilkS") (width 0.254) (tstamp b7645767-654c-4c06-a410-67fb306f3292))
  (fp_line (start -1.58 -2.12) (end 6.66 -2.12) (layer "F.SilkS") (width 0.254) (tstamp ce87dfb8-8d5a-405c-a18e-f2dc2a2d3ee3))
  (fp_line (start 0.94 1.05) (end 0.94 1.37) (layer "F.SilkS") (width 0.254) (tstamp f5a1f91c-08f0-4b82-b29a-b68716fb3954))
  (fp_line (start -1.71 -2.25) (end -1.71 1.5) (layer "F.CrtYd") (width 0.05) (tstamp 8ae993af-1f9a-475e-920a-c9a0c26597fc))
  (fp_line (start 6.79 -2.25) (end -1.71 -2.25) (layer "F.CrtYd") (width 0.05) (tstamp 9de7cf52-aa9e-4cbf-9533-7eaae769c7b1))
  (fp_line (start 6.79 1.5) (end 6.79 -2.25) (layer "F.CrtYd") (width 0.05) (tstamp e1169596-170a-4f13-ad5f-74df06cfd175))
  (fp_line (start -1.71 1.5) (end 6.79 1.5) (layer "F.CrtYd") (width 0.05) (tstamp fabdce78-6aed-4c0c-8b26-45a94816bc60))
  (fp_line (start 4.14 -2) (end 4.14 1.25) (layer "F.Fab") (width 0.1) (tstamp 017301d8-1b37-4e75-a111-4b079809a8cb))
  (fp_line (start -1.46 -2) (end -1.46 1.25) (layer "F.Fab") (width 0.1) (tstamp 3960b94e-eb57-4995-a909-792fabc65de3))
  (fp_line (start 0.94 -2) (end 0.94 1.25) (layer "F.Fab") (width 0.1) (tstamp 5b3f8759-3107-4eb6-b60d-654162aed64f))
  (fp_line (start 6.54 -2) (end -1.46 -2) (layer "F.Fab") (width 0.1) (tstamp 763bb78d-e1c8-483a-ac41-36ae3b2a6d33))
  (fp_line (start 6.54 1.25) (end 6.54 -2) (layer "F.Fab") (width 0.1) (tstamp 87560c37-801c-4a46-8eea-d9217c63eef3))
  (fp_line (start -1.46 1.25) (end 6.54 1.25) (layer "F.Fab") (width 0.1) (tstamp 8b941825-8cae-4841-8bb8-e29c5fd880de))
  (pad "1" thru_hole oval (at 2.54 0) (size 1.8 1.8) (drill 1) (layers *.Cu *.Mask) (tstamp 5a8f7367-6d20-4fd6-a669-ea2955d34e29))
  (pad "2" thru_hole oval (at 5.08 0) (size 1.8 1.8) (drill 1) (layers *.Cu *.Mask) (tstamp 3a844bb2-668f-4919-8658-bf1a80fa9445))
  (pad "3" thru_hole rect (at 0 0) (size 1.8 1.8) (drill 1) (layers *.Cu *.Mask) (tstamp cb1e1ecc-cff0-4c50-baba-89e418161479))
  (model "${KICAD6_3DMODEL_DIR}/Package_TO_SOT_THT.3dshapes/TO-126-3_Vertical.wrl"
    (offset (xyz 0 0 0))
    (scale (xyz 1 1 1))
    (rotate (xyz 0 0 0))
  )
)
