(footprint "TO-220-3_Vertical_STD_For_Bottom_Layer" (version 20211014) (generator pcbnew)
  (layer "F.Cu")
  (tedit 5AC8BA0D)
  (descr "TO-220-3, Vertical, RM 2.54mm, see https://www.vishay.com/docs/66542/to-220-1.pdf")
  (tags "TO-220-3 Vertical RM 2.54mm")
  (attr through_hole)
  (fp_text reference "REF**" (at 2.54 -2.54) (layer "F.SilkS")
    (effects (font (size 1 1) (thickness 0.15)))
    (tstamp 6bd27186-b010-4029-b24e-312d37f4dced)
  )
  (fp_text value "TO-220-3_Vertical_STD_For_Bottom_Layer" (at 2.54 4.445) (layer "F.Fab")
    (effects (font (size 1 1) (thickness 0.15)))
    (tstamp 16ac26a3-a630-4166-ae92-c0a5a344b818)
  )
  (fp_text user "${REFERENCE}" (at 2.54 -2.54) (layer "F.Fab")
    (effects (font (size 1 1) (thickness 0.15)))
    (tstamp 4beaf1d8-ba51-43ae-abad-4dd39e51926a)
  )
  (fp_line (start 7.66 3.27) (end -2.58 3.27) (layer "F.SilkS") (width 0.12) (tstamp 0e11c88e-b754-4e99-979d-9ed02540aa72))
  (fp_line (start 4.39 3.27) (end 4.39 1.76) (layer "F.SilkS") (width 0.12) (tstamp 62123731-894a-437d-8de5-08654a6ce7cd))
  (fp_line (start 0.689 3.27) (end 0.689 1.76) (layer "F.SilkS") (width 0.12) (tstamp 7b03a21f-7573-4d8a-a43b-ade3de400f74))
  (fp_line (start 7.66 3.27) (end 7.66 -1.371) (layer "F.SilkS") (width 0.12) (tstamp 986af05e-2b2d-4bb3-9220-40c8702080f5))
  (fp_line (start 7.66 -1.371) (end -2.58 -1.371) (layer "F.SilkS") (width 0.12) (tstamp a6526729-3f83-482e-8daa-3676c1b8831b))
  (fp_line (start -2.58 3.27) (end -2.58 -1.371) (layer "F.SilkS") (width 0.12) (tstamp bb53d577-1473-441f-99f0-57c4b1564e40))
  (fp_line (start 7.66 1.76) (end -2.58 1.76) (layer "F.SilkS") (width 0.12) (tstamp ebbd28ed-539a-463f-87c1-672f02806572))
  (fp_line (start 7.79 3.4) (end 7.79 -1.51) (layer "F.CrtYd") (width 0.05) (tstamp 70c571d2-c81c-4a91-a68b-f762ae0b3d3c))
  (fp_line (start -2.71 3.4) (end 7.79 3.4) (layer "F.CrtYd") (width 0.05) (tstamp 7f7e623d-9c46-4274-8040-5aa34dda972f))
  (fp_line (start 7.79 -1.51) (end -2.71 -1.51) (layer "F.CrtYd") (width 0.05) (tstamp ee900916-8f65-4b24-b0ad-7f6d61020dff))
  (fp_line (start -2.71 -1.51) (end -2.71 3.4) (layer "F.CrtYd") (width 0.05) (tstamp f1d41b05-2cfc-41ac-8ad7-e1c81790611e))
  (fp_line (start -2.46 -1.25) (end -2.46 3.15) (layer "F.Fab") (width 0.1) (tstamp 2dbcbc02-876a-4d23-92b5-cbd18f762c01))
  (fp_line (start 0.69 3.15) (end 0.69 1.88) (layer "F.Fab") (width 0.1) (tstamp 72e88e95-95fe-4ba6-ae5a-65edfb0394ad))
  (fp_line (start 7.54 1.88) (end -2.46 1.88) (layer "F.Fab") (width 0.1) (tstamp 80b3f338-28c6-4622-a19c-703e51189f3b))
  (fp_line (start -2.46 3.15) (end 7.54 3.15) (layer "F.Fab") (width 0.1) (tstamp 8a53fa44-aa78-426a-a64c-c9ae13187fab))
  (fp_line (start 7.54 -1.25) (end -2.46 -1.25) (layer "F.Fab") (width 0.1) (tstamp 9ba3f735-d9da-47bf-beb6-e5c69fae2a11))
  (fp_line (start 4.39 3.15) (end 4.39 1.88) (layer "F.Fab") (width 0.1) (tstamp abbd6c58-0999-4df1-982d-ebcb7149eb26))
  (fp_line (start 7.54 3.15) (end 7.54 -1.25) (layer "F.Fab") (width 0.1) (tstamp d3895ff7-d5db-4181-bee7-672a65d3791a))
  (pad "1" thru_hole oval (at 2.54 0 180) (size 1.905 2) (drill 1.1) (layers *.Cu *.Mask) (tstamp ba4e0e83-5466-49c3-b975-b1afe7bcdc43))
  (pad "2" thru_hole rect (at 0 0.0475 180) (size 1.905 2) (drill 1.1) (layers *.Cu *.Mask) (tstamp 36b39aab-cf22-4a54-a01f-def500168bfb))
  (pad "3" thru_hole oval (at 5.08 0 180) (size 1.905 2) (drill 1.1) (layers *.Cu *.Mask) (tstamp ae97195c-63df-42c6-8ed3-15f6e0c98594))
  (model "${KICAD6_3DMODEL_DIR}/Package_TO_SOT_THT.3dshapes/TO-220-3_Vertical.wrl"
    (offset (xyz 0 0 -7.5))
    (scale (xyz 1 1 1))
    (rotate (xyz -180 0 0))
  )
)
