(footprint "TOROIDAL_INDUCTOR_0077083A7" (version 20211014) (generator pcbnew)
  (layer "F.Cu")
  (tedit 0)
  (attr through_hole)
  (fp_text reference "REF**" (at 0 0 unlocked) (layer "F.SilkS")
    (effects (font (size 1.524 1.016) (thickness 0.254)))
    (tstamp a816bd43-5296-4744-a531-54697d5b10fe)
  )
  (fp_text value "TOROIDAL_INDUCTOR_0077083A7" (at 0 22.86 unlocked) (layer "F.Fab")
    (effects (font (size 1 1) (thickness 0.15)))
    (tstamp 3e47f25b-c590-4dad-b23b-96da578a283f)
  )
  (fp_text user "${REFERENCE}" (at 0 0 unlocked) (layer "F.Fab")
    (effects (font (size 1 1) (thickness 0.15)))
    (tstamp 4631b19b-b561-437d-9f46-9febc65b7059)
  )
  (fp_line (start -18 0) (end -14 0) (layer "F.SilkS") (width 2) (tstamp 01f2dade-2e95-48f4-bf37-8c98c772fb14))
  (fp_line (start 0 -20.385) (end 0 -11.66) (layer "F.SilkS") (width 2) (tstamp 142b2910-698e-4ed8-b394-06513693e07c))
  (fp_line (start 0 11.66) (end 0 20.385) (layer "F.SilkS") (width 2) (tstamp 1c895b63-5918-41b1-8c11-966b4c102eb1))
  (fp_line (start -18 9) (end -10 5) (layer "F.SilkS") (width 2) (tstamp 2e9b5fa2-6c18-4036-8c1f-1384f06a4829))
  (fp_line (start -14 -14) (end -8 -8) (layer "F.SilkS") (width 2) (tstamp 313d078b-6d2d-4b37-bd88-12f5e7afe483))
  (fp_line (start -9 18) (end -5 10) (layer "F.SilkS") (width 2) (tstamp 3180ef9e-8c41-4652-90e6-05a91a1b735b))
  (fp_line (start 9 18) (end 5 10) (layer "F.SilkS") (width 2) (tstamp 32750974-0d24-49eb-812e-00e2345f7dff))
  (fp_line (start -18 -9) (end -10 -5) (layer "F.SilkS") (width 2) (tstamp 40eaae22-6411-4c85-9717-d0362394fd52))
  (fp_line (start 14 14) (end 8 8) (layer "F.SilkS") (width 2) (tstamp 474f4ee2-eceb-449e-bed3-ee13c84baeb0))
  (fp_line (start 11.66 0) (end 20.385 0) (layer "F.SilkS") (width 2) (tstamp 4da5928e-9ad8-4a4f-bb73-ebefc786df00))
  (fp_line (start 18 9) (end 10 5) (layer "F.SilkS") (width 2) (tstamp 632e093b-d89c-4bc3-9ecd-99bae51b9704))
  (fp_line (start -9 -18) (end -5 -10) (layer "F.SilkS") (width 2) (tstamp 70e5c1fd-63cd-4a87-bf3b-4e32876d4c6e))
  (fp_line (start 14 -14) (end 8 -8) (layer "F.SilkS") (width 2) (tstamp 87fe29e7-2a8d-4acb-b64d-1cb544704abf))
  (fp_line (start -14 14) (end -8 8) (layer "F.SilkS") (width 2) (tstamp 9233d78e-7725-44bb-b755-d63c8308f680))
  (fp_line (start 18 -9) (end 10 -5) (layer "F.SilkS") (width 2) (tstamp eb60e5d2-32f4-495e-b42b-7fa4fcf66e3b))
  (fp_line (start 9 -18) (end 5 -10) (layer "F.SilkS") (width 2) (tstamp f9e6af4d-476c-4467-bb6f-661b21818b8f))
  (fp_circle (center 0 0) (end 20.5 0) (layer "F.SilkS") (width 0.254) (fill none) (tstamp 26479071-b416-4cee-a966-fcab6654f58e))
  (fp_circle (center -10 0) (end -7.310475 0) (layer "F.SilkS") (width 0.245) (fill none) (tstamp 2f48bb71-4395-437f-8f0b-1ae4a9a05c8c))
  (fp_circle (center 0 0) (end 11.5 0) (layer "F.SilkS") (width 0.254) (fill none) (tstamp c714f200-95c5-417e-8892-6198a58e5afc))
  (fp_circle (center -21.59 0) (end -18.9 0) (layer "F.SilkS") (width 0.254) (fill none) (tstamp c9450fc6-91ae-4b92-8476-d9eeee75499a))
  (fp_line (start -24.4856 21.4884) (end 24.4856 21.4884) (layer "F.CrtYd") (width 0.05) (tstamp 6f114a0d-35de-4cc1-9c5b-0ab0ceacfef6))
  (fp_line (start 24.4856 21.4884) (end 24.4856 -21.4884) (layer "F.CrtYd") (width 0.05) (tstamp 8a1d5d12-88a0-4960-bd5f-6d6a789548d7))
  (fp_line (start 24.4856 -21.4884) (end -24.4856 -21.4884) (layer "F.CrtYd") (width 0.05) (tstamp b364a078-36f4-4634-8289-f6ee1b2a8734))
  (fp_line (start -24.4856 -21.4884) (end -24.4856 21.4884) (layer "F.CrtYd") (width 0.05) (tstamp e4951d5c-d307-476e-a9fa-cdc4f78af1e0))
  (fp_circle (center 0 0) (end 11.66 0) (layer "F.Fab") (width 0.1) (fill none) (tstamp 15129bcc-9697-4c82-92f3-274c65ce7722))
  (fp_circle (center 0 0) (end 20.385 0) (layer "F.Fab") (width 0.1) (fill none) (tstamp caf0c681-1309-4a71-9b83-0804c40a2d7e))
  (pad "1" thru_hole circle (at -21.59 0) (size 5 5) (drill 2.5) (layers *.Cu *.Mask) (tstamp 55fafb84-ffe5-4b6d-9116-cae821010ecb))
  (pad "2" thru_hole circle (at -10 0) (size 5 5) (drill 2.5) (layers *.Cu *.Mask) (tstamp f44bd8d6-09b0-4a88-804d-063dfefa9dce))
)
